Params a=4 b=4 c=4 d=4 1/e=0.250000 f=0
Graph loaded
Number of vertexes: 2210104
Number of edges: 17614820
Delta: 4196
Graph is not bipartite
Randomizing vertexes and running greedy:
	[0] Got 5 colors
	[1] Got 5 colors
	[2] Got 5 colors
	[3] Got 5 colors
Ordering colors by random blocks and running greedy:
	[0] Got 4 colors
	[1] Got 4 colors
	[2] Got 4 colors
	[3] Got 4 colors
χs:
	(1) 4
	(2) 4
	(3) 4
χs:
	(1) 4
	(2) 4
	(3) 4
χs:
	(1) 4
	(2) 4
	(3) 4
χs:
	(1) 4
	(2) 4
	(3) 4
Best χ: 4

χs:
	(1) 4
	(2) 4
	(3) 4
χs:
	(1) 4
	(2) 4
	(3) 4
χs:
	(1) 4
	(2) 4
	(3) 4
χs:
	(1) 4
	(2) 4
	(3) 4
Best χ: 4

χs:
	(1) 4
	(2) 4
	(3) 4
χs:
	(1) 4
	(2) 4
	(3) 4
χs:
	(1) 4
	(2) 4
	(3) 4
χs:
	(1) 4
	(2) 4
	(3) 4
Best χ: 4

χs:
	(1) 4
	(2) 4
	(3) 4
χs:
	(1) 4
	(2) 4
	(3) 4
χs:
	(1) 4
	(2) 4
	(3) 4
χs:
	(1) 4
	(2) 4
	(3) 4
Best χ: 4

Done, performed 58 greedies

real	6m47.989s
user	6m36.415s
sys	0m8.942s
