Params a=16 b=0 c=82 d=4 1/e=0.333333 f=0
Graph loaded
Number of vertexes: 3080
Number of edges: 8606120
Delta: 2977
Graph is not bipartite
Randomizing vertexes and running greedy:
	[0] Got 345 colors
	[1] Got 345 colors
	[2] Got 326 colors
	[3] Got 327 colors
	[4] Got 336 colors
	[5] Got 333 colors
	[6] Got 332 colors
	[7] Got 336 colors
	[8] Got 334 colors
	[9] Got 338 colors
	[10] Got 335 colors
	[11] Got 333 colors
	[12] Got 343 colors
	[13] Got 341 colors
	[14] Got 332 colors
	[15] Got 341 colors
Ordering colors by random blocks and running greedy:
χs:
	(1) 318
	(2) 296
	(3) 313
χs:
	(1) 299
	(2) 288
	(3) 301
χs:
	(1) 290
	(2) 279
	(3) 294
χs:
	(1) 283
	(2) 272
	(3) 290
Best χ: 272

χs:
	(1) 272
	(2) 267
	(3) 271
χs:
	(1) 269
	(2) 264
	(3) 269
χs:
	(1) 267
	(2) 260
	(3) 268
χs:
	(1) 264
	(2) 257
	(3) 266
Best χ: 257

χs:
	(1) 256
	(2) 255
	(3) 256
χs:
	(1) 256
	(2) 250
	(3) 254
χs:
	(1) 254
	(2) 248
	(3) 253
χs:
	(1) 254
	(2) 247
	(3) 252
Best χ: 247

χs:
	(1) 247
	(2) 244
	(3) 247
χs:
	(1) 245
	(2) 243
	(3) 247
χs:
	(1) 244
	(2) 239
	(3) 247
χs:
	(1) 243
	(2) 237
	(3) 247
Best χ: 237

χs:
	(1) 237
	(2) 237
	(3) 235
χs:
	(1) 237
	(2) 234
	(3) 234
χs:
	(1) 235
	(2) 232
	(3) 234
χs:
	(1) 233
	(2) 229
	(3) 234
Best χ: 229

χs:
	(1) 228
	(2) 228
	(3) 228
χs:
	(1) 228
	(2) 227
	(3) 227
χs:
	(1) 228
	(2) 225
	(3) 226
χs:
	(1) 227
	(2) 225
	(3) 223
Best χ: 223

χs:
	(1) 222
	(2) 215
	(3) 220
χs:
	(1) 221
	(2) 212
	(3) 219
χs:
	(1) 221
	(2) 211
	(3) 219
χs:
	(1) 220
	(2) 201
	(3) 217
Best χ: 201

χs:
	(1) 200
	(2) 200
	(3) 201
χs:
	(1) 199
	(2) 199
	(3) 200
χs:
	(1) 198
	(2) 196
	(3) 200
χs:
	(1) 197
	(2) 194
	(3) 199
Best χ: 194

χs:
	(1) 194
	(2) 194
	(3) 194
χs:
	(1) 193
	(2) 194
	(3) 192
χs:
	(1) 193
	(2) 194
	(3) 192
χs:
	(1) 192
	(2) 194
	(3) 190
Best χ: 190

χs:
	(1) 189
	(2) 188
	(3) 189
χs:
	(1) 187
	(2) 186
	(3) 189
χs:
	(1) 186
	(2) 185
	(3) 189
χs:
	(1) 186
	(2) 183
	(3) 189
Best χ: 183

χs:
	(1) 183
	(2) 182
	(3) 183
χs:
	(1) 183
	(2) 181
	(3) 183
χs:
	(1) 183
	(2) 181
	(3) 183
χs:
	(1) 183
	(2) 181
	(3) 183
Best χ: 181

χs:
	(1) 180
	(2) 180
	(3) 180
χs:
	(1) 180
	(2) 179
	(3) 178
χs:
	(1) 179
	(2) 179
	(3) 178
χs:
	(1) 179
	(2) 179
	(3) 178
Best χ: 178

χs:
	(1) 178
	(2) 175
	(3) 178
χs:
	(1) 178
	(2) 172
	(3) 176
χs:
	(1) 178
	(2) 169
	(3) 174
χs:
	(1) 177
	(2) 166
	(3) 171
Best χ: 166

χs:
	(1) 164
	(2) 165
	(3) 165
χs:
	(1) 164
	(2) 165
	(3) 163
χs:
	(1) 163
	(2) 164
	(3) 163
χs:
	(1) 163
	(2) 164
	(3) 162
Best χ: 162

χs:
	(1) 162
	(2) 157
	(3) 162
χs:
	(1) 162
	(2) 156
	(3) 160
χs:
	(1) 162
	(2) 155
	(3) 160
χs:
	(1) 162
	(2) 155
	(3) 160
Best χ: 155

χs:
	(1) 155
	(2) 154
	(3) 155
χs:
	(1) 154
	(2) 154
	(3) 153
χs:
	(1) 154
	(2) 154
	(3) 151
χs:
	(1) 153
	(2) 154
	(3) 150
Best χ: 150

χs:
	(1) 150
	(2) 148
	(3) 149
χs:
	(1) 150
	(2) 148
	(3) 148
χs:
	(1) 150
	(2) 148
	(3) 148
χs:
	(1) 149
	(2) 147
	(3) 147
Best χ: 147

χs:
	(1) 147
	(2) 147
	(3) 147
χs:
	(1) 147
	(2) 147
	(3) 147
χs:
	(1) 147
	(2) 147
	(3) 147
χs:
	(1) 147
	(2) 147
	(3) 146
Best χ: 146

χs:
	(1) 146
	(2) 144
	(3) 145
χs:
	(1) 146
	(2) 142
	(3) 145
χs:
	(1) 146
	(2) 142
	(3) 145
χs:
	(1) 145
	(2) 142
	(3) 145
Best χ: 142

χs:
	(1) 139
	(2) 141
	(3) 142
χs:
	(1) 139
	(2) 141
	(3) 142
χs:
	(1) 139
	(2) 140
	(3) 142
χs:
	(1) 139
	(2) 140
	(3) 142
Best χ: 139

χs:
	(1) 138
	(2) 138
	(3) 138
χs:
	(1) 138
	(2) 137
	(3) 137
χs:
	(1) 138
	(2) 137
	(3) 137
χs:
	(1) 138
	(2) 137
	(3) 136
Best χ: 136

χs:
	(1) 135
	(2) 135
	(3) 136
χs:
	(1) 135
	(2) 135
	(3) 135
χs:
	(1) 134
	(2) 135
	(3) 135
χs:
	(1) 134
	(2) 135
	(3) 135
Best χ: 134

χs:
	(1) 134
	(2) 133
	(3) 133
χs:
	(1) 133
	(2) 132
	(3) 132
χs:
	(1) 133
	(2) 131
	(3) 132
χs:
	(1) 132
	(2) 131
	(3) 132
Best χ: 131

χs:
	(1) 130
	(2) 131
	(3) 131
χs:
	(1) 129
	(2) 131
	(3) 131
χs:
	(1) 129
	(2) 131
	(3) 131
χs:
	(1) 129
	(2) 131
	(3) 130
Best χ: 129

χs:
	(1) 129
	(2) 128
	(3) 129
χs:
	(1) 128
	(2) 124
	(3) 129
χs:
	(1) 128
	(2) 123
	(3) 128
χs:
	(1) 128
	(2) 123
	(3) 128
Best χ: 123

χs:
	(1) 123
	(2) 122
	(3) 123
χs:
	(1) 123
	(2) 122
	(3) 122
χs:
	(1) 121
	(2) 122
	(3) 122
χs:
	(1) 121
	(2) 122
	(3) 122
Best χ: 121

χs:
	(1) 121
	(2) 120
	(3) 121
χs:
	(1) 121
	(2) 119
	(3) 121
χs:
	(1) 121
	(2) 119
	(3) 120
χs:
	(1) 121
	(2) 118
	(3) 120
Best χ: 118

χs:
	(1) 118
	(2) 118
	(3) 118
χs:
	(1) 118
	(2) 118
	(3) 118
χs:
	(1) 118
	(2) 118
	(3) 118
χs:
	(1) 118
	(2) 118
	(3) 118
Best χ: 118

χs:
	(1) 118
	(2) 116
	(3) 118
χs:
	(1) 118
	(2) 116
	(3) 118
χs:
	(1) 118
	(2) 116
	(3) 117
χs:
	(1) 117
	(2) 116
	(3) 117
Best χ: 116

χs:
	(1) 116
	(2) 116
	(3) 116
χs:
	(1) 116
	(2) 116
	(3) 116
χs:
	(1) 116
	(2) 116
	(3) 116
χs:
	(1) 116
	(2) 116
	(3) 116
Best χ: 116

χs:
	(1) 116
	(2) 116
	(3) 116
χs:
	(1) 116
	(2) 116
	(3) 116
χs:
	(1) 116
	(2) 116
	(3) 115
χs:
	(1) 116
	(2) 116
	(3) 115
Best χ: 115

χs:
	(1) 115
	(2) 115
	(3) 115
χs:
	(1) 115
	(2) 115
	(3) 115
χs:
	(1) 115
	(2) 115
	(3) 115
χs:
	(1) 115
	(2) 115
	(3) 115
Best χ: 115

χs:
	(1) 115
	(2) 115
	(3) 115
χs:
	(1) 115
	(2) 115
	(3) 115
χs:
	(1) 115
	(2) 115
	(3) 115
χs:
	(1) 115
	(2) 115
	(3) 115
Best χ: 115

χs:
	(1) 115
	(2) 115
	(3) 115
χs:
	(1) 115
	(2) 115
	(3) 115
χs:
	(1) 115
	(2) 115
	(3) 115
χs:
	(1) 115
	(2) 115
	(3) 115
Best χ: 115

χs:
	(1) 115
	(2) 115
	(3) 115
χs:
	(1) 115
	(2) 115
	(3) 115
χs:
	(1) 115
	(2) 115
	(3) 115
χs:
	(1) 115
	(2) 115
	(3) 115
Best χ: 115

χs:
	(1) 115
	(2) 115
	(3) 115
χs:
	(1) 115
	(2) 115
	(3) 115
χs:
	(1) 115
	(2) 115
	(3) 115
χs:
	(1) 115
	(2) 115
	(3) 115
Best χ: 115

χs:
	(1) 115
	(2) 115
	(3) 115
χs:
	(1) 115
	(2) 115
	(3) 115
χs:
	(1) 115
	(2) 115
	(3) 115
χs:
	(1) 115
	(2) 115
	(3) 115
Best χ: 115

χs:
	(1) 115
	(2) 115
	(3) 115
χs:
	(1) 115
	(2) 115
	(3) 115
χs:
	(1) 115
	(2) 115
	(3) 115
χs:
	(1) 115
	(2) 115
	(3) 115
Best χ: 115

χs:
	(1) 115
	(2) 115
	(3) 115
χs:
	(1) 115
	(2) 115
	(3) 115
χs:
	(1) 115
	(2) 115
	(3) 115
χs:
	(1) 115
	(2) 115
	(3) 115
Best χ: 115

χs:
	(1) 115
	(2) 115
	(3) 115
χs:
	(1) 115
	(2) 115
	(3) 115
χs:
	(1) 115
	(2) 115
	(3) 115
χs:
	(1) 115
	(2) 115
	(3) 115
Best χ: 115

χs:
	(1) 115
	(2) 115
	(3) 115
χs:
	(1) 115
	(2) 115
	(3) 115
χs:
	(1) 115
	(2) 115
	(3) 115
χs:
	(1) 115
	(2) 115
	(3) 115
Best χ: 115

χs:
	(1) 115
	(2) 115
	(3) 115
χs:
	(1) 115
	(2) 115
	(3) 115
χs:
	(1) 115
	(2) 115
	(3) 115
χs:
	(1) 115
	(2) 115
	(3) 115
Best χ: 115

χs:
	(1) 115
	(2) 115
	(3) 115
χs:
	(1) 115
	(2) 115
	(3) 115
χs:
	(1) 115
	(2) 115
	(3) 115
χs:
	(1) 115
	(2) 115
	(3) 115
Best χ: 115

χs:
	(1) 115
	(2) 115
	(3) 115
χs:
	(1) 115
	(2) 115
	(3) 115
χs:
	(1) 115
	(2) 115
	(3) 115
χs:
	(1) 115
	(2) 115
	(3) 115
Best χ: 115

χs:
	(1) 115
	(2) 115
	(3) 115
χs:
	(1) 115
	(2) 115
	(3) 115
χs:
	(1) 115
	(2) 115
	(3) 115
χs:
	(1) 115
	(2) 115
	(3) 114
Best χ: 114

χs:
	(1) 114
	(2) 114
	(3) 114
χs:
	(1) 114
	(2) 114
	(3) 114
χs:
	(1) 114
	(2) 114
	(3) 114
χs:
	(1) 114
	(2) 114
	(3) 114
Best χ: 114

χs:
	(1) 114
	(2) 114
	(3) 114
χs:
	(1) 114
	(2) 114
	(3) 114
χs:
	(1) 114
	(2) 114
	(3) 114
χs:
	(1) 114
	(2) 114
	(3) 114
Best χ: 114

χs:
	(1) 114
	(2) 114
	(3) 114
χs:
	(1) 114
	(2) 114
	(3) 114
χs:
	(1) 114
	(2) 114
	(3) 114
χs:
	(1) 114
	(2) 114
	(3) 114
Best χ: 114

χs:
	(1) 114
	(2) 114
	(3) 114
χs:
	(1) 114
	(2) 114
	(3) 114
χs:
	(1) 114
	(2) 114
	(3) 114
χs:
	(1) 114
	(2) 114
	(3) 114
Best χ: 114

χs:
	(1) 114
	(2) 114
	(3) 114
χs:
	(1) 114
	(2) 114
	(3) 114
χs:
	(1) 114
	(2) 114
	(3) 114
χs:
	(1) 114
	(2) 114
	(3) 114
Best χ: 114

χs:
	(1) 114
	(2) 114
	(3) 114
χs:
	(1) 114
	(2) 114
	(3) 114
χs:
	(1) 114
	(2) 114
	(3) 114
χs:
	(1) 114
	(2) 114
	(3) 114
Best χ: 114

χs:
	(1) 114
	(2) 114
	(3) 114
χs:
	(1) 114
	(2) 114
	(3) 114
χs:
	(1) 114
	(2) 114
	(3) 114
χs:
	(1) 114
	(2) 114
	(3) 114
Best χ: 114

χs:
	(1) 114
	(2) 114
	(3) 114
χs:
	(1) 114
	(2) 114
	(3) 114
χs:
	(1) 114
	(2) 114
	(3) 114
χs:
	(1) 114
	(2) 114
	(3) 114
Best χ: 114

χs:
	(1) 114
	(2) 114
	(3) 114
χs:
	(1) 114
	(2) 114
	(3) 114
χs:
	(1) 114
	(2) 114
	(3) 114
χs:
	(1) 114
	(2) 114
	(3) 114
Best χ: 114

χs:
	(1) 114
	(2) 114
	(3) 114
χs:
	(1) 114
	(2) 114
	(3) 114
χs:
	(1) 114
	(2) 114
	(3) 114
χs:
	(1) 114
	(2) 114
	(3) 114
Best χ: 114

χs:
	(1) 114
	(2) 114
	(3) 114
χs:
	(1) 114
	(2) 114
	(3) 114
χs:
	(1) 114
	(2) 114
	(3) 114
χs:
	(1) 114
	(2) 114
	(3) 114
Best χ: 114

χs:
	(1) 114
	(2) 114
	(3) 114
χs:
	(1) 114
	(2) 114
	(3) 114
χs:
	(1) 114
	(2) 114
	(3) 114
χs:
	(1) 114
	(2) 114
	(3) 114
Best χ: 114

χs:
	(1) 114
	(2) 114
	(3) 114
χs:
	(1) 114
	(2) 114
	(3) 114
χs:
	(1) 114
	(2) 114
	(3) 114
χs:
	(1) 114
	(2) 114
	(3) 114
Best χ: 114

χs:
	(1) 114
	(2) 114
	(3) 114
χs:
	(1) 114
	(2) 114
	(3) 114
χs:
	(1) 114
	(2) 114
	(3) 114
χs:
	(1) 114
	(2) 114
	(3) 114
Best χ: 114

χs:
	(1) 114
	(2) 114
	(3) 114
χs:
	(1) 114
	(2) 114
	(3) 114
χs:
	(1) 114
	(2) 114
	(3) 114
χs:
	(1) 114
	(2) 114
	(3) 114
Best χ: 114

χs:
	(1) 114
	(2) 114
	(3) 114
χs:
	(1) 114
	(2) 114
	(3) 114
χs:
	(1) 114
	(2) 114
	(3) 114
χs:
	(1) 114
	(2) 114
	(3) 114
Best χ: 114

χs:
	(1) 114
	(2) 114
	(3) 114
χs:
	(1) 114
	(2) 114
	(3) 114
χs:
	(1) 114
	(2) 114
	(3) 114
χs:
	(1) 114
	(2) 114
	(3) 114
Best χ: 114

χs:
	(1) 114
	(2) 114
	(3) 114
χs:
	(1) 114
	(2) 114
	(3) 114
χs:
	(1) 114
	(2) 114
	(3) 114
χs:
	(1) 114
	(2) 114
	(3) 114
Best χ: 114

χs:
	(1) 114
	(2) 114
	(3) 114
χs:
	(1) 114
	(2) 114
	(3) 114
χs:
	(1) 114
	(2) 114
	(3) 114
χs:
	(1) 114
	(2) 114
	(3) 114
Best χ: 114

χs:
	(1) 114
	(2) 114
	(3) 114
χs:
	(1) 114
	(2) 114
	(3) 114
χs:
	(1) 114
	(2) 114
	(3) 114
χs:
	(1) 114
	(2) 114
	(3) 114
Best χ: 114

χs:
	(1) 114
	(2) 114
	(3) 114
χs:
	(1) 114
	(2) 114
	(3) 114
χs:
	(1) 114
	(2) 114
	(3) 114
χs:
	(1) 114
	(2) 114
	(3) 114
Best χ: 114

χs:
	(1) 114
	(2) 114
	(3) 114
χs:
	(1) 114
	(2) 114
	(3) 114
χs:
	(1) 114
	(2) 114
	(3) 114
χs:
	(1) 114
	(2) 114
	(3) 114
Best χ: 114

χs:
	(1) 114
	(2) 114
	(3) 114
χs:
	(1) 114
	(2) 114
	(3) 114
χs:
	(1) 114
	(2) 114
	(3) 114
χs:
	(1) 114
	(2) 114
	(3) 114
Best χ: 114

χs:
	(1) 114
	(2) 114
	(3) 114
χs:
	(1) 114
	(2) 114
	(3) 114
χs:
	(1) 114
	(2) 114
	(3) 114
χs:
	(1) 114
	(2) 114
	(3) 114
Best χ: 114

χs:
	(1) 114
	(2) 114
	(3) 114
χs:
	(1) 114
	(2) 114
	(3) 114
χs:
	(1) 114
	(2) 114
	(3) 114
χs:
	(1) 114
	(2) 114
	(3) 114
Best χ: 114

χs:
	(1) 114
	(2) 114
	(3) 114
χs:
	(1) 114
	(2) 114
	(3) 114
χs:
	(1) 114
	(2) 114
	(3) 114
χs:
	(1) 114
	(2) 114
	(3) 114
Best χ: 114

χs:
	(1) 114
	(2) 114
	(3) 114
χs:
	(1) 114
	(2) 114
	(3) 114
χs:
	(1) 114
	(2) 114
	(3) 114
χs:
	(1) 114
	(2) 114
	(3) 114
Best χ: 114

χs:
	(1) 114
	(2) 114
	(3) 114
χs:
	(1) 114
	(2) 114
	(3) 114
χs:
	(1) 114
	(2) 114
	(3) 114
χs:
	(1) 114
	(2) 114
	(3) 114
Best χ: 114

χs:
	(1) 114
	(2) 114
	(3) 114
χs:
	(1) 114
	(2) 114
	(3) 114
χs:
	(1) 114
	(2) 114
	(3) 114
χs:
	(1) 114
	(2) 114
	(3) 114
Best χ: 114

χs:
	(1) 114
	(2) 114
	(3) 114
χs:
	(1) 114
	(2) 114
	(3) 114
χs:
	(1) 114
	(2) 114
	(3) 114
χs:
	(1) 114
	(2) 114
	(3) 114
Best χ: 114

χs:
	(1) 114
	(2) 114
	(3) 114
χs:
	(1) 114
	(2) 114
	(3) 114
χs:
	(1) 114
	(2) 114
	(3) 114
χs:
	(1) 114
	(2) 114
	(3) 114
Best χ: 114

χs:
	(1) 114
	(2) 114
	(3) 114
χs:
	(1) 114
	(2) 114
	(3) 114
χs:
	(1) 114
	(2) 114
	(3) 114
χs:
	(1) 114
	(2) 114
	(3) 114
Best χ: 114

χs:
	(1) 114
	(2) 114
	(3) 114
χs:
	(1) 114
	(2) 114
	(3) 114
χs:
	(1) 114
	(2) 114
	(3) 114
χs:
	(1) 114
	(2) 114
	(3) 114
Best χ: 114

χs:
	(1) 114
	(2) 114
	(3) 114
χs:
	(1) 114
	(2) 114
	(3) 114
χs:
	(1) 114
	(2) 114
	(3) 114
χs:
	(1) 114
	(2) 114
	(3) 114
Best χ: 114

χs:
	(1) 114
	(2) 114
	(3) 114
χs:
	(1) 114
	(2) 114
	(3) 114
χs:
	(1) 114
	(2) 114
	(3) 114
χs:
	(1) 114
	(2) 114
	(3) 114
Best χ: 114

χs:
	(1) 114
	(2) 114
	(3) 114
χs:
	(1) 114
	(2) 114
	(3) 114
χs:
	(1) 114
	(2) 114
	(3) 114
χs:
	(1) 114
	(2) 114
	(3) 114
Best χ: 114

χs:
	(1) 114
	(2) 114
	(3) 114
χs:
	(1) 114
	(2) 114
	(3) 114
χs:
	(1) 114
	(2) 114
	(3) 114
χs:
	(1) 114
	(2) 114
	(3) 114
Best χ: 114

Done, performed 1002 greedies

real	23m15.194s
user	23m3.404s
sys	0m8.842s
